<svg width="60" height="77" viewBox="0 0 60 77" fill="none" xmlns="http://www.w3.org/2000/svg">
    <g filter="url(#filter0_d_39_378)">
    <rect x="2" y="26.9541" width="38.1184" height="8" rx="4" transform="rotate(-45 2 26.9541)" fill="#F1F7FE"/>
    <rect x="29.3555" width="38.1233" height="8" rx="4" transform="rotate(45 29.3555 0)" fill="#F1F7FE"/>
    <rect x="24.6992" y="66.9995" width="64" height="8" rx="4" transform="rotate(-90 24.6992 66.9995)" fill="#F1F7FE"/>
    </g>
    <defs>
    <filter id="filter0_d_39_378" x="0.657227" y="1.65674" width="58.999" height="75.3428" filterUnits="userSpaceOnUse" color-interpolation-filters="sRGB">
    <feFlood flood-opacity="0" result="BackgroundImageFix"/>
    <feColorMatrix in="SourceAlpha" type="matrix" values="0 0 0 0 0 0 0 0 0 0 0 0 0 0 0 0 0 0 127 0" result="hardAlpha"/>
    <feOffset dx="1" dy="6"/>
    <feGaussianBlur stdDeviation="2"/>
    <feComposite in2="hardAlpha" operator="out"/>
    <feColorMatrix type="matrix" values="0 0 0 0 0.254902 0 0 0 0 0.917647 0 0 0 0 0.917647 0 0 0 0.25 0"/>
    <feBlend mode="normal" in2="BackgroundImageFix" result="effect1_dropShadow_39_378"/>
    <feBlend mode="normal" in="SourceGraphic" in2="effect1_dropShadow_39_378" result="shape"/>
    </filter>
    </defs>
    </svg>
    