<svg width="64" height="40" viewBox="0 0 64 40" fill="none" xmlns="http://www.w3.org/2000/svg">
    <rect width="64" height="8" rx="4" fill="#F1F7FE"/>
    <rect y="32" width="64" height="8" rx="4" fill="#F1F7FE"/>
    <rect y="16" width="64" height="8" rx="4" fill="#F1F7FE"/>
</svg>
    